Dataset,Classifier,P,R,F1,FPR,ROC AUC,PR AUC
OWASP Benchmark,random forest,0.52,0.89,0.65,0.82,0.54,0.51
OWASP Benchmark,svm,0.50,1.00,0.66,1.00,0.50,0.50
OWASP Benchmark,resnet,0.51,0.49,0.50,0.46,0.51,0.50
Juliet Test Suite for Java,random forest,0.00,0.00,0.00,0.00,0.50,0.42
Juliet Test Suite for Java,svm,0.00,0.00,0.00,0.00,0.50,0.42
Juliet Test Suite for Java,resnet,0.41,1.00,0.60,1.00,0.50,0.42
Anki-Android,random forest,0.66,0.78,0.71,0.38,0.70,0.62
Anki-Android,svm,0.57,0.93,0.70,0.66,0.64,0.56
Anki-Android,resnet,0.48,1.00,0.65,1.00,0.50,0.48
Connectbot,random forest,1.00,0.94,0.97,0.00,0.97,0.98
Connectbot,svm,0.90,0.53,0.67,0.08,0.72,0.75
Connectbot,resnet,0.90,0.53,0.67,0.08,0.72,0.75
CoolReader,random forest,0.80,0.76,0.78,0.15,0.80,0.71
CoolReader,svm,0.65,0.54,0.61,0.47,0.43,0.04
CoolReader,resnet,0.45,0.46,0.45,0.46,0.50,0.45
Xwords,random forest,0.86,0.87,0.87,0.16,0.86,0.82
Xwords,svm,0.75,0.67,0.70,0.25,0.71,0.68
Xwords,resnet,0.61,0.92,0.74,0.65,0.64,0.61
FBReaderJ,random forest,0.83,0.68,0.75,0.06,0.81,0.67
FBReaderJ,svm,0.00,0.00,0.00,0.00,0.50,0.32
FBReaderJ,resnet,0.46,0.53,0.49,0.29,0.62,0.39
K9Mail,random forest,0.80,0.82,0.81,0.20,0.81,0.74
K9Mail,svm,0.64,0.86,0.74,0.47,0.70,0.62
K9Mail,resnet,0.47,0.38,0.42,0.41,0.48,0.48
KeePassAndroid,random forest,0.90,0.83,0.86,0.07,0.88,0.82
KeePassAndroid,svm,0.00,0.00,0.00,0.00,0.50,0.43
KeePassAndroid,resnet,0.71,0.27,0.39,0.08,0.59,0.51
Camera,random forest,0.72,0.62,0.67,0.16,0.73,0.60
Camera,svm,0.00,0.00,0.00,0.00,0.50,0.40
Camera,resnet,0.00,0.00,0.00,0.00,0.50,0.40
Browser,random forest,0.50,0.41,0.45,0.23,0.59,0.42
Browser,svm,0.00,0.00,0.00,0.00,0.50,0.36
Browser,resnet,0.35,0.97,0.52,1.00,0.48,0.35
Calendar,random forest,0.62,0.73,0.67,0.26,0.74,0.55
Calendar,svm,0.71,0.23,0.34,0.05,0.50,0.36
Calendar,resnet,0.36,1.00,0.53,1.00,0.50,0.36
Contacts,random forest,0.57,0.60,0.59,0.20,0.70,0.46
Contacts,svm,0.00,0.00,0.00,0.00,0.50,0.30
Contacts,resnet,0.39,0.56,0.46,0.39,0.59,0.35
DeskClock,random forest,0.89,1.00,0.94,0.06,0.97,0.89
DeskClock,svm,0.54,0.88,0.67,0.33,0.77,0.51
DeskClock,resnet,0.31,1.00,0.47,1.00,0.50,0.31
Email,random forest,0.83,0.86,0.84,0.20,0.83,0.79
Email,svm,0.63,0.77,0.69,0.52,0.62,0.61
Email,resnet,0.61,0.84,0.71,0.62,0.61,0.60
MMS,random forest,0.86,0.83,0.84,0.07,0.88,0.77
MMS,svm,0.57,0.55,0.56,0.20,0.68,0.68
MMS,resnet,0.43,0.71,0.54,0.45,0.63,0.40