Dataset,Classifier,P,R,F1,FPR,ROC AUC,PR AUC
OWASP Benchmark,random forest,1.00,1.00,1.00,0.00,1.00,1.00
OWASP Benchmark,svm,0.99,0.99,0.99,0.01,0.99,0.99
OWASP Benchmark,resnet,1.00,1.00,1.00,0.00,1.00,1.00
Juliet Test Suite for Java,random forest,1.00,1.00,1.00,0.00,1.00,1.00
Juliet Test Suite for Java,svm,1.00,1.00,1.00,0.00,1.00,1.00
Juliet Test Suite for Java,resnet,1.00,0.98,0.99,0.00,0.99,0.99
Anki-Android,random forest,0.82,0.85,0.84,0.17,0.95,0.96
Anki-Android,svm,0.67,0.74,0.70,0.74,0.82,0.85
Anki-Android,resnet,0.70,0.89,0.79,0.34,0.77,0.82
Connectbot,random forest,1.00,1.00,1.00,0.00,1.00,1.00
Connectbot,svm,1.00,0.88,0.94,0.00,1.00,1.00
Connectbot,resnet,0.75,0.88,0.81,0.42,0.73,0.85
CoolReader,random forest,1.00,1.00,1.00,0.00,1.00,1.00
CoolReader,svm,0.92,0.93,0.93,0.06,0.98,0.97
CoolReader,resnet,1.00,0.97,0.99,0.00,0.99,0.99
Xwords,random forest,1.00,1.00,1.00,0.00,1.00,1.00
Xwords,svm,1.00,0.93,0.96,0.00,0.99,0.99
Xwords,resnet,0.98,0.95,0.96,0.03,0.96,0.98
FBReaderJ,random forest,0.98,0.96,0.97,0.01,0.97,0.95
FBReaderJ,svm,0.97,0.97,0.97,0.01,0.97,0.94
FBReaderJ,resnet,0.98,0.91,0.94,0.01,0.95,0.92
K9Mail,random forest,1.00,1.00,1.00,0.00,1.00,1.00
K9Mail,svm,0.99,1.00,0.99,0.01,0.99,0.99
K9Mail,resnet,1.00,0.98,0.99,0.00,0.99,0.99
KeePassAndroid,random forest,0.99,0.99,0.99,0.01,0.99,0.98
KeePassAndroid,svm,0.99,0.99,0.99,0.01,0.99,0.98
KeePassAndroid,resnet,0.46,1.00,0.63,0.90,0.55,0.46
Camera,random forest,0.94,0.91,0.93,0.04,0.94,0.89
Camera,svm,0.89,0.94,0.93,0.06,0.94,0.88
Camera,resnet,0.91,0.91,0.91,0.06,0.93,0.87
Browser,random forest,1.00,0.88,0.93,0.00,0.94,0.92
Browser,svm,1.00,0.84,0.92,0.00,0.94,0.92
Browser,resnet,1.00,0.81,0.90,0.00,0.91,0.88
Calendar,random forest,0.87,0.91,0.89,0.08,0.92,0.82
Calendar,svm,0.88,0.95,0.91,0.08,0.94,0.85
Calendar,resnet,0.83,0.86,0.84,0.10,0.88,0.76
Contacts,random forest,0.90,0.96,0.93,0.05,0.96,0.88
Contacts,svm,0.90,0.96,0.93,0.05,0.96,0.88
Contacts,resnet,0.84,0.88,0.86,0.07,0.90,0.77
DeskClock,random forest,0.89,1.00,0.94,0.06,0.89,0.92
DeskClock,svm,0.89,1.00,0.94,0.06,0.89,0.92
DeskClock,resnet,0.80,1.00,0.89,0.11,0.94,0.80
Email,random forest,0.99,0.96,0.97,0.01,0.97,0.97
Email,svm,0.98,0.96,0.97,0.03,0.97,0.96
Email,resnet,0.98,0.96,0.97,0.03,0.97,0.96
MMS,random forest,0.98,0.97,0.97,0.01,0.98,0.96
MMS,svm,0.98,0.97,0.97,0.01,0.97,0.95
MMS,resnet,0.95,0.95,0.96,0.01,0.97,0.95